{
  "schemaVersion": 1,
  "id": "modid",
  "version": "${version}",

  "name": "Bloody Fabric!",
  "description": "Add some blood to your game! Adds simple blood particle effects when attacking mobs.",
  "authors": [
    "Ruvaldak AKA OddCoward"
  ],

  "license": "CC0-1.0",
  "icon": "assets/modid/icon.png",

  "environment": "*",
  "entrypoints": {
    "main": [
      "net.ruvaldak.bloodyfabric.BloodyFabric"
    ]
  },
  "mixins": [
  ],

  "depends": {
    "fabricloader": ">=0.13.3",
    "fabric": "*",
    "minecraft": "~1.18.2",
    "java": ">=17"
  },
  "suggests": {
    "another-mod": "*"
  }
}
